Where Not to Get Lucky
…
# Creating a new object for data manipulation

std_data<- (STDs_Nationally_Ranked_By_State)

# Reducing the data into chlyamidia, gonorrhea, and syphlis rates by year and state

std_data <- select (std_data,  c(Year, State, Chlamydia_Rate, Gonorrhea_Rate, Primary_Secondary_Syphilis_Rate))

# Transforming data into a tibble

as.tibble (std_data)

## # A tibble: 800 x 5
##     Year State     Chlamydia_Rate Gonorrhea_Rate Primary_Secondary_Syphili~
##    <int> <fct>              <dbl>          <dbl>                      <dbl>
##  1  2000 Alabama             344.          271                          2.8
##  2  2000 Alaska              409.           57.5                        0  
##  3  2000 Arizona             244.           79.9                        3.7
##  4  2000 Arkansas            232.          136                          3.9
##  5  2000 Californ~           280.           63.6                        1  
##  6  2000 Colorado            277.           71.9                        0.3
##  7  2000 Connecti~           223.           85.3                        0.5
##  8  2000 Delaware            363.          221.                         1.1
##  9  2000 Florida             208           142.                         2.6
## 10  2000 Georgia             356.          246.                         4.9
## # ... with 790 more rows
…
# Computing slope and intercept of regression model using formula of form y~x

highest_states <- lm(Total_Mean ~ State, highest_states)

# Regression table of states with highest rates of STDs 2000-2015

get_regression_table(highest_states)

## # A tibble: 50 x 7
##    term             estimate std_error statistic p_value lower_ci upper_ci
##    <chr>               <dbl>     <dbl>     <dbl>   <dbl>    <dbl>    <dbl>
##  1 intercept           229.       6.92     33.1    0        216.    243.  
##  2 StateAlaska          36.2      9.79      3.70   0         17.0    55.4 
##  3 StateArizona        -76.0      9.79     -7.76   0        -95.2   -56.8 
##  4 StateArkansas       -39.9      9.79     -4.08   0        -59.1   -20.7 
##  5 StateCalifornia     -70.4      9.79     -7.19   0        -89.7   -51.2 
##  6 StateColorado       -85.8      9.79     -8.77   0       -105.    -66.6 
##  7 StateConnecticut    -97.0      9.79     -9.90   0       -116.    -77.7 
##  8 StateDelaware       -34.7      9.79     -3.54   0        -53.9   -15.5 
##  9 StateFlorida        -77.3      9.79     -7.89   0        -96.5   -58.1 
## 10 StateGeorgia        -16.4      9.79     -1.67   0.095    -35.6     2.87
## # ... with 40 more rows
…
# Get all fitted/predicted values/residuals

get_regression_points(highest_states)

## # A tibble: 800 x 5
##       ID Total_Mean State       Total_Mean_hat residual
##    <int>      <dbl> <fct>                <dbl>    <dbl>
##  1     1       206  Alabama               229.  -23.4  
##  2     2       156. Alaska                266. -110.   
##  3     3       109. Arizona               153.  -44.2  
##  4     4       124. Arkansas              189.  -65.4  
##  5     5       115. California            159.  -43.9  
##  6     6       116. Colorado              144.  -27.0  
##  7     7       103. Connecticut           132.  -29.5  
##  8     8       195. Delaware              195.    0.285
##  9     9       118. Florida               152.  -34.6  
## 10    10       202. Georgia               213.  -10.5  
## # ... with 790 more rows
…
# Training models on training data
train_stds_shuffled <- lm(Total_Mean ~ State + Chlamydia_Rate,
data = train)

get_regression_table(train_stds_shuffled)

## # A tibble: 51 x 7
##    term             estimate std_error statistic p_value lower_ci upper_ci
##    <chr>               <dbl>     <dbl>     <dbl>   <dbl>    <dbl>    <dbl>
##  1 intercept           70.0       3.42     20.5    0         63.3    76.7 
##  2 StateAlaska        -24.3       3.88     -6.25   0        -31.9   -16.6 
##  3 StateArizona       -42.1       4.03    -10.5    0        -50.0   -34.2 
##  4 StateArkansas      -14.7       3.31     -4.45   0        -21.2    -8.22
##  5 StateCalifornia    -34.8       3.37    -10.3    0        -41.5   -28.2 
##  6 StateColorado      -45.6       3.41    -13.4    0        -52.3   -38.9 
##  7 StateConnecticut   -43.1       4.33     -9.94   0        -51.6   -34.6 
##  8 StateDelaware      -18.6       3.42     -5.45   0        -25.4   -11.9 
##  9 StateFlorida       -26.7       3.32     -8.04   0        -33.2   -20.1 
## 10 StateGeorgia        -6.00      3.43     -1.75   0.081    -12.7     0.75
## # ... with 41 more rows

## Making predictions on test data

# Train model on train:

train_stds_shuffled <- lm(Total_Mean ~ State + Chlamydia_Rate, 
data = train)

# Get predictions on test:

get_regression_points(train_stds_shuffled, newdata = test)

## # A tibble: 400 x 6
##       ID Total_Mean State      Chlamydia_Rate Total_Mean_hat residual
##    <int>      <dbl> <fct>               <dbl>          <dbl>    <dbl>
##  1     1      112.  Washington           288.          117.     -5.16
##  2     2      146.  Nevada               298.          131.     14.8 
##  3     3       53.0 Idaho                153.           54.4    -1.38
##  4     4      180.  New Mexico           467.          182.     -1.78
##  5     5      194.  Missouri             454.          200.     -5.98
##  6     6      199.  New Mexico           503.          194.      4.95
##  7     7      143.  Washington           362.          142.      1.52
##  8     8      152.  Montana              413           145.      7.60
##  9     9      205.  Arizona              489.          189.     15.8 
## 10    10      121.  Kansas               283.          126.     -4.60
## # ... with 390 more rows
…
